<?xml version="1.0" standalone="no"?>
<!DOCTYPE svg PUBLIC "-//W3C//DTD SVG 20010904//EN"
 "http://www.w3.org/TR/2001/REC-SVG-20010904/DTD/svg10.dtd">
<svg version="1.0" xmlns="http://www.w3.org/2000/svg"
 width="16.000000pt" height="16.000000pt" viewBox="0 0 16.000000 16.000000"
 preserveAspectRatio="xMidYMid meet">
<metadata>
Created by potrace 1.11, written by Peter Selinger 2001-2013
</metadata>
<g transform="translate(0.000000,16.000000) scale(0.006154,-0.006154)"
fill="#000000" stroke="none">
<path d="M1281 2510 c2 -8 -1 -26 -5 -39 -10 -30 7 -49 28 -32 16 13 12 32
-11 66 -9 13 -13 15 -12 5z"/>
<path d="M1088 2400 c-3 -16 0 -32 6 -34 7 -3 6 -8 -3 -14 -9 -6 -12 -23 -9
-50 2 -22 0 -38 -3 -36 -12 7 -20 -29 -9 -40 5 -5 10 -24 10 -42 0 -39 11 -44
95 -44 66 0 79 -7 69 -34 -5 -12 -20 -16 -65 -16 -32 0 -59 -2 -59 -5 0 -3 7
-17 16 -30 l16 -25 -76 0 c-58 0 -76 3 -76 14 0 8 7 16 15 20 19 7 19 35 1 42
-10 4 -14 17 -11 40 1 19 -1 34 -7 34 -5 0 -8 8 -7 18 1 9 -4 31 -11 47 l-13
30 -7 -25 c-4 -14 -3 -29 2 -35 11 -13 10 -38 -2 -30 -11 7 -13 -4 -10 -47 1
-16 -3 -28 -9 -28 -14 0 -15 -37 -1 -42 5 -1 11 -16 12 -33 3 -49 12 -53 110
-54 50 0 93 -3 96 -6 3 -2 -3 -16 -12 -29 -9 -14 -16 -28 -16 -31 0 -3 20 -5
44 -5 26 0 48 -6 56 -15 7 -8 11 -15 9 -16 -20 -4 -370 -1 -375 4 -7 6 10 39
19 38 18 -2 17 1 -1 32 -11 17 -18 42 -16 55 3 15 -1 22 -13 22 -13 0 -14 3
-5 12 17 17 15 31 -7 57 l-19 22 -4 -23 c-2 -13 1 -31 7 -42 7 -14 7 -20 -2
-23 -7 -3 -13 -18 -13 -34 0 -16 -6 -39 -12 -50 -10 -17 -10 -23 0 -26 6 -3
12 -18 12 -35 0 -59 12 -62 228 -63 142 -1 197 -4 200 -13 5 -17 -23 -42 -46
-42 -31 0 -52 -11 -52 -26 0 -9 -11 -14 -30 -14 -16 0 -30 -4 -30 -8 0 -4
-103 -8 -230 -8 -126 0 -233 -3 -236 -7 -3 -3 15 -32 41 -64 26 -32 51 -67 55
-78 4 -12 8 -235 7 -496 0 -261 3 -481 8 -489 6 -10 4 -12 -11 -6 -10 5 -25 9
-31 9 -7 0 -11 2 -8 5 2 3 -7 18 -20 34 -14 16 -28 40 -31 54 -3 13 -10 24
-14 24 -17 0 -41 -85 -39 -134 l3 -51 -79 1 c-74 1 -78 1 -59 -15 22 -18 68
-81 59 -81 -3 0 2 -11 11 -26 9 -14 23 -23 30 -20 9 3 11 -3 8 -20 -14 -75
279 -211 536 -249 24 -4 48 -9 52 -11 5 -3 8 -2 8 3 0 4 11 8 24 8 13 0 22 -3
20 -6 -2 -3 47 -7 107 -8 89 -2 109 0 103 11 -6 10 -5 10 7 2 8 -6 21 -10 29
-9 8 1 51 5 94 9 44 4 84 10 90 14 6 3 18 7 26 7 8 1 25 2 38 3 15 1 21 6 16
14 -4 7 -3 8 5 4 14 -9 111 22 111 35 0 6 4 8 9 5 14 -9 42 5 34 17 -4 6 -1 7
6 3 7 -5 40 11 82 38 57 38 69 51 64 66 -5 15 -2 20 12 20 10 0 36 17 58 38
22 21 57 50 78 64 l38 25 -78 7 c-43 4 -90 8 -104 9 l-27 1 23 31 c13 16 25
44 27 60 2 17 8 33 13 37 6 5 4 8 -5 8 -10 0 -11 3 -4 8 8 5 8 15 2 32 -9 25
-10 25 -23 5 -35 -50 -68 -72 -125 -81 -14 -2 -36 -6 -50 -9 -21 -4 -22 -4 -7
5 16 10 17 45 17 504 0 462 1 494 18 514 10 11 27 33 38 47 10 15 27 36 36 47
10 11 16 23 14 27 -2 3 -110 6 -240 5 -130 0 -236 3 -236 8 0 4 -10 8 -23 8
-12 0 -27 8 -33 18 -6 9 -24 18 -39 20 -22 2 -64 35 -65 52 0 3 89 5 199 6
109 0 206 4 215 7 11 4 16 18 16 42 0 24 4 35 15 35 18 0 19 14 2 32 -7 7 -14
25 -14 41 -1 15 -1 32 -2 37 -1 6 -12 10 -25 10 -21 0 -23 -4 -22 -40 1 -27
-2 -40 -11 -40 -16 0 -17 -15 0 -40 9 -16 9 -22 0 -28 -6 -4 -82 -6 -170 -5
-205 2 -193 0 -187 18 5 11 21 15 61 15 l54 0 -21 29 c-11 16 -17 32 -13 34 5
2 45 5 91 5 93 0 113 10 108 52 -2 18 2 31 10 34 16 6 19 46 4 46 -5 0 -10 15
-10 33 0 18 -6 39 -12 46 -10 11 -10 14 0 18 14 5 16 32 3 52 -6 10 -12 5 -24
-18 -9 -17 -11 -33 -6 -37 13 -8 11 -24 -3 -22 -7 2 -15 -14 -19 -37 -3 -22
-9 -48 -14 -57 -4 -12 -3 -18 5 -18 6 0 10 -10 8 -22 -3 -20 -9 -22 -63 -23
-74 -1 -79 1 -60 28 23 33 19 39 -27 37 -71 -3 -78 -1 -78 20 0 21 1 21 85 24
64 1 75 9 75 52 0 19 5 34 10 34 6 0 10 11 10 25 0 14 -4 25 -10 25 -5 0 -10
18 -10 40 0 22 -5 40 -10 40 -7 0 -7 6 -1 18 11 20 11 62 1 62 -15 0 -32 -49
-25 -70 5 -15 4 -20 -4 -16 -7 5 -11 -3 -12 -21 -1 -27 -4 -43 -8 -53 -8 -17
-8 -41 0 -46 5 -3 9 -12 9 -20 0 -11 -15 -14 -65 -14 l-65 0 0 30 c0 20 5 30
15 30 19 0 20 39 1 46 -10 4 -14 22 -13 67 2 59 1 61 -23 61 -24 1 -25 -3 -28
-59 -2 -33 -7 -62 -11 -65 -5 -3 -12 -15 -15 -28 -5 -16 -4 -22 6 -20 8 2 14
-9 16 -29 l3 -33 -66 0 c-60 0 -66 2 -60 18 15 34 17 62 6 62 -6 0 -11 17 -11
41 0 27 -4 38 -11 33 -8 -5 -8 -1 0 14 14 26 14 45 1 37 -5 -3 -10 1 -10 9 0
29 -18 26 -22 -4z m236 -364 c30 -27 32 -43 10 -74 -11 -16 -23 -21 -42 -18
-15 2 -32 5 -38 5 -6 1 -16 12 -22 26 -14 31 7 71 41 78 12 2 23 5 24 6 1 0
13 -10 27 -23z m472 -1498 c-18 -26 -21 -59 -5 -75 18 -18 -13 -38 -87 -57
-38 -10 -76 -20 -84 -23 -8 -3 -28 -7 -45 -9 -16 -2 -41 -7 -55 -11 -14 -3
-31 -5 -39 -4 -7 1 -20 -1 -30 -4 -14 -6 -111 -13 -111 -8 0 1 19 11 43 21 78
35 190 87 302 139 60 28 114 52 118 52 5 1 1 -9 -7 -21z m-891 -43 c44 -21
134 -62 200 -92 l120 -54 -60 5 c-33 3 -69 7 -80 9 -34 8 -109 21 -120 22 -5
0 -16 4 -22 8 -7 5 -17 5 -23 2 -5 -3 -10 -2 -10 2 0 5 -29 17 -65 27 -36 10
-65 21 -65 23 0 3 9 18 21 34 11 16 18 37 15 45 -3 8 -2 13 2 11 4 -3 43 -22
87 -42z"/>
<path d="M1731 2094 c-25 -31 -26 -40 -7 -47 19 -8 34 12 34 46 -1 33 -2 33
-27 1z"/>
</g>
</svg>
